disease to model organism • monarchr
…
Each of these tibbles represent graphs with a central node of BAP1 (or BAP1’s orthologs) connected to each of its interactors.

We can continue from here to look at qualities of these BAP1 centralized network in data from each organism. That is left as an exercise.

We try to fix our limited results, and proceed only with mouse and human BAP1, as there are lots of interactions.

bap1_and_mouse_bap1 <- c(bap1, "MGI:1206586")
hm_bap1_homolog_intxns <- lapply(bap1_and_mouse_bap1, bioentity_interactions_assoc_w_gene, rows = 3000)  
hm_bap1_intxns <- lapply(hm_bap1_homolog_intxns, "[[", "interactions")
hm_bap1_intxns <- do.call('rbind', hm_bap1_intxns)
split(hm_bap1_intxns, hm_bap1_intxns$subject.id)

## $`HGNC:950`
## # A tibble: 148 x 10
##    subject.taxon subject.id subject relation object object.id object.taxon
##    <chr>         <chr>      <chr>   <chr>    <chr>  <chr>     <chr>       
##  1 Homo sapiens  HGNC:950   BAP1    interac… IPO4   HGNC:194… Homo sapiens
##  2 Homo sapiens  HGNC:950   BAP1    interac… USP28  HGNC:126… Homo sapiens
##  3 Homo sapiens  HGNC:950   BAP1    interac… MAP3K1 HGNC:6848 Homo sapiens
##  4 Homo sapiens  HGNC:950   BAP1    interac… XRCC3  HGNC:128… Homo sapiens
##  5 Homo sapiens  HGNC:950   BAP1    interac… PSMB2  HGNC:9539 Homo sapiens
##  6 Homo sapiens  HGNC:950   BAP1    interac… AHCYL2 HGNC:222… Homo sapiens
##  7 Homo sapiens  HGNC:950   BAP1    interac… BMI1   HGNC:1066 Homo sapiens
##  8 Homo sapiens  HGNC:950   BAP1    interac… TSNAX  HGNC:123… Homo sapiens
##  9 Homo sapiens  HGNC:950   BAP1    interac… PHC1   HGNC:3182 Homo sapiens
## 10 Homo sapiens  HGNC:950   BAP1    interac… HIST2… HGNC:4736 Homo sapiens
## # ... with 138 more rows, and 3 more variables: evidence <fct>,
## #   publications <fct>, provided_by <fct>
## 
## $`MGI:1206586`
## # A tibble: 116 x 10
##    subject.taxon subject.id subject relation object object.id object.taxon
##    <chr>         <chr>      <chr>   <chr>    <chr>  <chr>     <chr>       
##  1 Mus musculus  MGI:12065… Bap1    interac… Phc1   MGI:1032… Mus musculus
##  2 Mus musculus  MGI:12065… Bap1    interac… Mpnd   MGI:1915… Mus musculus
##  3 Mus musculus  MGI:12065… Bap1    interac… Psma3  MGI:1048… Mus musculus
##  4 Mus musculus  MGI:12065… Bap1    interac… Psmd6  MGI:1913… Mus musculus
##  5 Mus musculus  MGI:12065… Bap1    interac… Gm5239 MGI:3648… Mus musculus
##  6 Mus musculus  MGI:12065… Bap1    interac… Brca1  MGI:1045… Mus musculus
##  7 Mus musculus  MGI:12065… Bap1    interac… DNAAF5 HGNC:260… Homo sapiens
##  8 Mus musculus  MGI:12065… Bap1    interac… Foxk1  MGI:1347… Mus musculus
##  9 Mus musculus  MGI:12065… Bap1    interac… Hist2… MGI:2448… Mus musculus
## 10 Mus musculus  MGI:12065… Bap1    interac… Psma4  MGI:1347… Mus musculus
## # ... with 106 more rows, and 3 more variables: evidence <fct>,
## #   publications <fct>, provided_by <fct>
…
Of the new genes of interest, KDM1A has the most cancer disease terms associated with it.

What are some of the phenotypes associated with either of the new genes.

new_genes <- lapply(new_genes_hgnc, bioentity_phenotypes_assoc_w_gene)
new_genes <- lapply(new_genes, "[[", "phenotypes")
new_genes <- do.call("rbind", new_genes)
new_genes

## # A tibble: 41 x 10
##    subject.taxon subject.id subject relation object object.id object.taxon
##    <chr>         <chr>      <chr>   <chr>    <chr>  <chr>     <lgl>       
##  1 Homo sapiens  HGNC:9393  PRKCA   has phe… Neopl… HP:00117… NA          
##  2 Homo sapiens  HGNC:9393  PRKCA   contrib… neuro… EFO:0005… NA          
##  3 Homo sapiens  HGNC:9393  PRKCA   contrib… coron… EFO:0004… NA          
##  4 Homo sapiens  HGNC:29079 KDM1A   has phe… Promi… HP:00112… NA          
##  5 Homo sapiens  HGNC:29079 KDM1A   has phe… Synop… HP:00006… NA          
##  6 Homo sapiens  HGNC:29079 KDM1A   has phe… Blue … HP:00005… NA          
##  7 Homo sapiens  HGNC:29079 KDM1A   has phe… Crypt… HP:00000… NA          
##  8 Homo sapiens  HGNC:29079 KDM1A   has phe… Highl… HP:00025… NA          
##  9 Homo sapiens  HGNC:29079 KDM1A   has phe… Cereb… HP:00124… NA          
## 10 Homo sapiens  HGNC:29079 KDM1A   has phe… Antev… HP:00004… NA          
## # ... with 31 more rows, and 3 more variables: evidence <fct>,
## #   publications <fct>, provided_by <fct>
…
