Diseases associated with a gene. — bioentity_disease_assoc_w_gene • monarchr
…
    Value

    A list of (tibble of homolog information, monarch_api S3 class).

    Details

    https://api.monarchinitiative.org/api/bioentity/gene/NCBIGene

    Examples

gene <- "NCBIGene:8314"
bioentity_disease_assoc_w_gene(gene)
#> $diseases
#> # A tibble: 25 x 9
#>    subject.taxon subject.id subject relation  object   object.id evidence      
#>  * <chr>         <chr>      <chr>   <chr>     <chr>    <chr>     <fct>         
#>  1 Homo sapiens  HGNC:950   BAP1    is marke… lipoma   MONDO:00… traceable aut…
#>  2 Homo sapiens  HGNC:950   BAP1    is marke… leukemi… MONDO:00… traceable aut…
#>  3 Homo sapiens  HGNC:950   BAP1    is marke… bone ca… MONDO:00… traceable aut…
#>  4 Homo sapiens  HGNC:950   BAP1    is marke… epithel… MONDO:00… traceable aut…
#>  5 Homo sapiens  HGNC:950   BAP1    is marke… testicu… MONDO:00… traceable aut…
#>  6 Homo sapiens  HGNC:950   BAP1    is marke… meningi… MONDO:00… traceable aut…
#>  7 Homo sapiens  HGNC:950   BAP1    has phen… uveal m… MONDO:00… traceable aut…
#>  8 Homo sapiens  HGNC:950   BAP1    is marke… maligna… MONDO:00… traceable aut…
#>  9 Homo sapiens  HGNC:950   BAP1    is marke… neuroen… MONDO:00… traceable aut…
#> 10 Homo sapiens  HGNC:950   BAP1    is marke… lung ad… MONDO:00… traceable aut…
#> # ... with 15 more rows, and 2 more variables: publications <fct>,
#> #   provided_by <fct>
…
